{
  "albums" : {
    "href" : "https://api.spotify.com/v1/search?query=Utopia&type=album&offset=0&limit=3",
    "items" : [ {
      "album_type" : "album",
      "artists" : [ {
        "external_urls" : {
          "spotify" : "https://open.spotify.com/artist/0Y5tJX1MQlPlqiwlOH1tJY"
        },
        "href" : "https://api.spotify.com/v1/artists/0Y5tJX1MQlPlqiwlOH1tJY",
        "id" : "0Y5tJX1MQlPlqiwlOH1tJY",
        "name" : "Travis Scott",
        "type" : "artist",
        "uri" : "spotify:artist:0Y5tJX1MQlPlqiwlOH1tJY"
      } ],
      "available_markets" : [ "AR", "AU", "AT", "BE", "BO", "BR", "BG", "CA", "CL", "CO", "CR", "CY", "CZ", "DK", "DO", "DE", "EC", "EE", "SV", "FI", "FR", "GR", "GT", "HN", "HK", "HU", "IS", "IE", "IT", "LV", "LT", "LU", "MY", "MT", "MX", "NL", "NZ", "NI", "NO", "PA", "PY", "PE", "PH", "PL", "PT", "SG", "SK", "ES", "SE", "CH", "TW", "TR", "UY", "US", "GB", "AD", "LI", "MC", "ID", "JP", "TH", "VN", "RO", "IL", "ZA", "SA", "AE", "BH", "QA", "OM", "KW", "EG", "MA", "DZ", "TN", "LB", "JO", "PS", "IN", "BY", "KZ", "MD", "UA", "AL", "BA", "HR", "ME", "MK", "RS", "SI", "KR", "BD", "PK", "LK", "GH", "KE", "NG", "TZ", "UG", "AG", "AM", "BS", "BB", "BZ", "BT", "BW", "BF", "CV", "CW", "DM", "FJ", "GM", "GE", "GD", "GW", "GY", "HT", "JM", "KI", "LS", "LR", "MW", "MV", "ML", "MH", "FM", "NA", "NR", "NE", "PW", "PG", "WS", "SM", "ST", "SN", "SC", "SL", "SB", "KN", "LC", "VC", "SR", "TL", "TO", "TT", "TV", "VU", "AZ", "BN", "BI", "KH", "CM", "TD", "KM", "GQ", "SZ", "GA", "GN", "KG", "LA", "MO", "MR", "MN", "NP", "RW", "TG", "UZ", "ZW", "BJ", "MG", "MU", "MZ", "AO", "CI", "DJ", "ZM", "CD", "CG", "IQ", "LY", "TJ", "VE", "ET", "XK" ],
      "external_urls" : {
        "spotify" : "https://open.spotify.com/album/18NOKLkZETa4sWwLMIm0UZ"
      },
      "href" : "https://api.spotify.com/v1/albums/18NOKLkZETa4sWwLMIm0UZ",
      "id" : "18NOKLkZETa4sWwLMIm0UZ",
      "images" : [ {
        "height" : 640,
        "url" : "https://i.scdn.co/image/ab67616d0000b273881d8d8378cd01099babcd44",
        "width" : 640
      }, {
        "height" : 300,
        "url" : "https://i.scdn.co/image/ab67616d00001e02881d8d8378cd01099babcd44",
        "width" : 300
      }, {
        "height" : 64,
        "url" : "https://i.scdn.co/image/ab67616d00004851881d8d8378cd01099babcd44",
        "width" : 64
      } ],
      "name" : "UTOPIA",
      "release_date" : "2023-07-28",
      "release_date_precision" : "day",
      "total_tracks" : 19,
      "type" : "album",
      "uri" : "spotify:album:18NOKLkZETa4sWwLMIm0UZ"
    }, {
      "album_type" : "album",
      "artists" : [ {
        "external_urls" : {
          "spotify" : "https://open.spotify.com/artist/5lwmRuXgjX8xIwlnauTZIP"
        },
        "href" : "https://api.spotify.com/v1/artists/5lwmRuXgjX8xIwlnauTZIP",
        "id" : "5lwmRuXgjX8xIwlnauTZIP",
        "name" : "Romeo Santos",
        "type" : "artist",
        "uri" : "spotify:artist:5lwmRuXgjX8xIwlnauTZIP"
      } ],
      "available_markets" : [ "AR", "AU", "AT", "BE", "BO", "BR", "BG", "CA", "CL", "CO", "CR", "CY", "CZ", "DK", "DO", "DE", "EC", "EE", "SV", "FI", "FR", "GR", "GT", "HN", "HK", "HU", "IS", "IE", "IT", "LV", "LT", "LU", "MY", "MT", "MX", "NL", "NZ", "NI", "NO", "PA", "PY", "PE", "PH", "PL", "PT", "SG", "SK", "ES", "SE", "CH", "TW", "TR", "UY", "US", "GB", "AD", "LI", "MC", "ID", "JP", "TH", "VN", "RO", "IL", "ZA", "SA", "AE", "BH", "QA", "OM", "KW", "EG", "MA", "DZ", "TN", "LB", "JO", "PS", "IN", "BY", "KZ", "MD", "UA", "AL", "BA", "HR", "ME", "MK", "RS", "SI", "KR", "BD", "PK", "LK", "GH", "KE", "NG", "TZ", "UG", "AG", "AM", "BS", "BB", "BZ", "BT", "BW", "BF", "CV", "CW", "DM", "FJ", "GM", "GE", "GD", "GW", "GY", "HT", "JM", "KI", "LS", "LR", "MW", "MV", "ML", "MH", "FM", "NA", "NR", "NE", "PW", "PG", "WS", "SM", "ST", "SN", "SC", "SL", "SB", "KN", "LC", "VC", "SR", "TL", "TO", "TT", "TV", "VU", "AZ", "BN", "BI", "KH", "CM", "TD", "KM", "GQ", "SZ", "GA", "GN", "KG", "LA", "MO", "MR", "MN", "NP", "RW", "TG", "UZ", "ZW", "BJ", "MG", "MU", "MZ", "AO", "CI", "DJ", "ZM", "CD", "CG", "IQ", "LY", "TJ", "VE", "ET", "XK" ],
      "external_urls" : {
        "spotify" : "https://open.spotify.com/album/1yM8iaMk4Slsqr94LabgN1"
      },
      "href" : "https://api.spotify.com/v1/albums/1yM8iaMk4Slsqr94LabgN1",
      "id" : "1yM8iaMk4Slsqr94LabgN1",
      "images" : [ {
        "height" : 640,
        "url" : "https://i.scdn.co/image/ab67616d0000b27394622369386da9eac528e2fe",
        "width" : 640
      }, {
        "height" : 300,
        "url" : "https://i.scdn.co/image/ab67616d00001e0294622369386da9eac528e2fe",
        "width" : 300
      }, {
        "height" : 64,
        "url" : "https://i.scdn.co/image/ab67616d0000485194622369386da9eac528e2fe",
        "width" : 64
      } ],
      "name" : "Utopia",
      "release_date" : "2019-04-05",
      "release_date_precision" : "day",
      "total_tracks" : 13,
      "type" : "album",
      "uri" : "spotify:album:1yM8iaMk4Slsqr94LabgN1"
    }, {
      "album_type" : "album",
      "artists" : [ {
        "external_urls" : {
          "spotify" : "https://open.spotify.com/artist/0Y5tJX1MQlPlqiwlOH1tJY"
        },
        "href" : "https://api.spotify.com/v1/artists/0Y5tJX1MQlPlqiwlOH1tJY",
        "id" : "0Y5tJX1MQlPlqiwlOH1tJY",
        "name" : "Travis Scott",
        "type" : "artist",
        "uri" : "spotify:artist:0Y5tJX1MQlPlqiwlOH1tJY"
      } ],
      "available_markets" : [ "AR", "AU", "AT", "BE", "BO", "BR", "BG", "CA", "CL", "CO", "CR", "CY", "CZ", "DK", "DO", "DE", "EC", "EE", "SV", "FI", "FR", "GR", "GT", "HN", "HK", "HU", "IS", "IE", "IT", "LV", "LT", "LU", "MY", "MT", "MX", "NL", "NZ", "NI", "NO", "PA", "PY", "PE", "PH", "PL", "PT", "SG", "SK", "ES", "SE", "CH", "TW", "TR", "UY", "US", "GB", "AD", "LI", "MC", "ID", "JP", "TH", "VN", "RO", "IL", "ZA", "SA", "AE", "BH", "QA", "OM", "KW", "EG", "MA", "DZ", "TN", "LB", "JO", "PS", "IN", "BY", "KZ", "MD", "UA", "AL", "BA", "HR", "ME", "MK", "RS", "SI", "KR", "BD", "PK", "LK", "GH", "KE", "NG", "TZ", "UG", "AG", "AM", "BS", "BB", "BZ", "BT", "BW", "BF", "CV", "CW", "DM", "FJ", "GM", "GE", "GD", "GW", "GY", "HT", "JM", "KI", "LS", "LR", "MW", "MV", "ML", "MH", "FM", "NA", "NR", "NE", "PW", "PG", "WS", "SM", "ST", "SN", "SC", "SL", "SB", "KN", "LC", "VC", "SR", "TL", "TO", "TT", "TV", "VU", "AZ", "BN", "BI", "KH", "CM", "TD", "KM", "GQ", "SZ", "GA", "GN", "KG", "LA", "MO", "MR", "MN", "NP", "RW", "TG", "UZ", "ZW", "BJ", "MG", "MU", "MZ", "AO", "CI", "DJ", "ZM", "CD", "CG", "IQ", "LY", "TJ", "VE", "ET", "XK" ],
      "external_urls" : {
        "spotify" : "https://open.spotify.com/album/6mpTzL80F11TaeU79loRyJ"
      },
      "href" : "https://api.spotify.com/v1/albums/6mpTzL80F11TaeU79loRyJ",
      "id" : "6mpTzL80F11TaeU79loRyJ",
      "images" : [ {
        "height" : 640,
        "url" : "https://i.scdn.co/image/ab67616d0000b2739162764a6017634fb155498d",
        "width" : 640
      }, {
        "height" : 300,
        "url" : "https://i.scdn.co/image/ab67616d00001e029162764a6017634fb155498d",
        "width" : 300
      }, {
        "height" : 64,
        "url" : "https://i.scdn.co/image/ab67616d000048519162764a6017634fb155498d",
        "width" : 64
      } ],
      "name" : "UTOPIA",
      "release_date" : "2023-07-26",
      "release_date_precision" : "day",
      "total_tracks" : 19,
      "type" : "album",
      "uri" : "spotify:album:6mpTzL80F11TaeU79loRyJ"
    } ],
    "limit" : 3,
    "next" : "https://api.spotify.com/v1/search?query=Utopia&type=album&offset=3&limit=3",
    "offset" : 0,
    "previous" : null,
    "total" : 930
  }
}