{
  "tracks" : {
    "href" : "https://api.spotify.com/v1/search?query=Happy&type=track&offset=0&limit=5",
    "items" : [ {
      "album" : {
        "album_type" : "single",
        "artists" : [ {
          "external_urls" : {
            "spotify" : "https://open.spotify.com/artist/4yjDVfayc6bIBLuyDWuw5W"
          },
          "href" : "https://api.spotify.com/v1/artists/4yjDVfayc6bIBLuyDWuw5W",
          "id" : "4yjDVfayc6bIBLuyDWuw5W",
          "name" : "Happy Birthday Songs",
          "type" : "artist",
          "uri" : "spotify:artist:4yjDVfayc6bIBLuyDWuw5W"
        } ],
        "available_markets" : [ "AR", "AU", "AT", "BE", "BO", "BR", "BG", "CA", "CL", "CO", "CR", "CY", "CZ", "DK", "DO", "DE", "EC", "EE", "SV", "FI", "FR", "GR", "GT", "HN", "HK", "HU", "IS", "IE", "IT", "LV", "LT", "LU", "MY", "MT", "MX", "NL", "NZ", "NI", "NO", "PA", "PY", "PE", "PH", "PL", "PT", "SG", "SK", "ES", "SE", "CH", "TW", "TR", "UY", "US", "GB", "AD", "LI", "MC", "ID", "JP", "TH", "VN", "RO", "IL", "ZA", "SA", "AE", "BH", "QA", "OM", "KW", "EG", "MA", "DZ", "TN", "LB", "JO", "PS", "IN", "BY", "KZ", "MD", "UA", "AL", "BA", "HR", "ME", "MK", "RS", "SI", "BD", "PK", "LK", "GH", "KE", "NG", "TZ", "UG", "AG", "AM", "BS", "BB", "BZ", "BT", "BW", "BF", "CV", "CW", "DM", "FJ", "GM", "GE", "GD", "GW", "GY", "HT", "JM", "KI", "LS", "LR", "MW", "MV", "ML", "MH", "FM", "NA", "NR", "NE", "PW", "PG", "WS", "SM", "ST", "SN", "SC", "SL", "SB", "KN", "LC", "VC", "SR", "TL", "TO", "TT", "TV", "VU", "AZ", "BN", "BI", "KH", "CM", "TD", "KM", "GQ", "SZ", "GA", "GN", "KG", "LA", "MO", "MR", "MN", "NP", "RW", "TG", "UZ", "ZW", "BJ", "MG", "MU", "MZ", "AO", "CI", "DJ", "ZM", "CD", "CG", "IQ", "LY", "TJ", "VE", "ET", "XK" ],
        "external_urls" : {
          "spotify" : "https://open.spotify.com/album/5DmODIhLV274RNBPrhwLYo"
        },
        "href" : "https://api.spotify.com/v1/albums/5DmODIhLV274RNBPrhwLYo",
        "id" : "5DmODIhLV274RNBPrhwLYo",
        "images" : [ {
          "height" : 640,
          "url" : "https://i.scdn.co/image/ab67616d0000b2734838420464683f253cd67b57",
          "width" : 640
        }, {
          "height" : 300,
          "url" : "https://i.scdn.co/image/ab67616d00001e024838420464683f253cd67b57",
          "width" : 300
        }, {
          "height" : 64,
          "url" : "https://i.scdn.co/image/ab67616d000048514838420464683f253cd67b57",
          "width" : 64
        } ],
        "name" : "Happy Birthday To You - Best Playlist of Happy Birthday Songs, Vol. 1",
        "release_date" : "2021-02-12",
        "release_date_precision" : "day",
        "total_tracks" : 20,
        "type" : "album",
        "uri" : "spotify:album:5DmODIhLV274RNBPrhwLYo"
      },
      "artists" : [ {
        "external_urls" : {
          "spotify" : "https://open.spotify.com/artist/4yjDVfayc6bIBLuyDWuw5W"
        },
        "href" : "https://api.spotify.com/v1/artists/4yjDVfayc6bIBLuyDWuw5W",
        "id" : "4yjDVfayc6bIBLuyDWuw5W",
        "name" : "Happy Birthday Songs",
        "type" : "artist",
        "uri" : "spotify:artist:4yjDVfayc6bIBLuyDWuw5W"
      } ],
      "available_markets" : [ "AR", "AU", "AT", "BE", "BO", "BR", "BG", "CA", "CL", "CO", "CR", "CY", "CZ", "DK", "DO", "DE", "EC", "EE", "SV", "FI", "FR", "GR", "GT", "HN", "HK", "HU", "IS", "IE", "IT", "LV", "LT", "LU", "MY", "MT", "MX", "NL", "NZ", "NI", "NO", "PA", "PY", "PE", "PH", "PL", "PT", "SG", "SK", "ES", "SE", "CH", "TW", "TR", "UY", "US", "GB", "AD", "LI", "MC", "ID", "JP", "TH", "VN", "RO", "IL", "ZA", "SA", "AE", "BH", "QA", "OM", "KW", "EG", "MA", "DZ", "TN", "LB", "JO", "PS", "IN", "BY", "KZ", "MD", "UA", "AL", "BA", "HR", "ME", "MK", "RS", "SI", "BD", "PK", "LK", "GH", "KE", "NG", "TZ", "UG", "AG", "AM", "BS", "BB", "BZ", "BT", "BW", "BF", "CV", "CW", "DM", "FJ", "GM", "GE", "GD", "GW", "GY", "HT", "JM", "KI", "LS", "LR", "MW", "MV", "ML", "MH", "FM", "NA", "NR", "NE", "PW", "PG", "WS", "SM", "ST", "SN", "SC", "SL", "SB", "KN", "LC", "VC", "SR", "TL", "TO", "TT", "TV", "VU", "AZ", "BN", "BI", "KH", "CM", "TD", "KM", "GQ", "SZ", "GA", "GN", "KG", "LA", "MO", "MR", "MN", "NP", "RW", "TG", "UZ", "ZW", "BJ", "MG", "MU", "MZ", "AO", "CI", "DJ", "ZM", "CD", "CG", "IQ", "LY", "TJ", "VE", "ET", "XK" ],
      "disc_number" : 1,
      "duration_ms" : 33215,
      "explicit" : false,
      "external_ids" : {
        "isrc" : "USCNJ2100318"
      },
      "external_urls" : {
        "spotify" : "https://open.spotify.com/track/2pW5kNCx133MWWirxegvng"
      },
      "href" : "https://api.spotify.com/v1/tracks/2pW5kNCx133MWWirxegvng",
      "id" : "2pW5kNCx133MWWirxegvng",
      "is_local" : false,
      "name" : "Happy Birthday To You - Classic Version",
      "popularity" : 48,
      "preview_url" : "https://p.scdn.co/mp3-preview/99408a443267912b5a26d29f57bee3d90d0ae0cb?cid=8f422087aab84a9eb15fb7e2547c4066",
      "track_number" : 18,
      "type" : "track",
      "uri" : "spotify:track:2pW5kNCx133MWWirxegvng"
    }, {
      "album" : {
        "album_type" : "album",
        "artists" : [ {
          "external_urls" : {
            "spotify" : "https://open.spotify.com/artist/6fOMl44jA4Sp5b9PpYCkzz"
          },
          "href" : "https://api.spotify.com/v1/artists/6fOMl44jA4Sp5b9PpYCkzz",
          "id" : "6fOMl44jA4Sp5b9PpYCkzz",
          "name" : "NF",
          "type" : "artist",
          "uri" : "spotify:artist:6fOMl44jA4Sp5b9PpYCkzz"
        } ],
        "available_markets" : [ "AR", "AU", "AT", "BE", "BO", "BR", "BG", "CA", "CL", "CO", "CR", "CY", "CZ", "DK", "DO", "DE", "EC", "EE", "SV", "FI", "FR", "GR", "GT", "HN", "HK", "HU", "IS", "IE", "IT", "LV", "LT", "LU", "MY", "MT", "MX", "NL", "NZ", "NI", "NO", "PA", "PY", "PE", "PH", "PL", "PT", "SG", "SK", "ES", "SE", "CH", "TW", "TR", "UY", "US", "GB", "AD", "LI", "MC", "ID", "JP", "TH", "VN", "RO", "IL", "ZA", "SA", "AE", "BH", "QA", "OM", "KW", "EG", "MA", "DZ", "TN", "LB", "JO", "PS", "IN", "KZ", "MD", "UA", "AL", "BA", "HR", "ME", "MK", "RS", "SI", "KR", "BD", "PK", "LK", "GH", "KE", "NG", "TZ", "UG", "AG", "AM", "BS", "BB", "BZ", "BT", "BW", "BF", "CV", "CW", "DM", "FJ", "GM", "GE", "GD", "GW", "GY", "HT", "JM", "KI", "LS", "LR", "MW", "MV", "ML", "MH", "FM", "NA", "NR", "NE", "PW", "PG", "WS", "SM", "ST", "SN", "SC", "SL", "SB", "KN", "LC", "VC", "SR", "TL", "TO", "TT", "TV", "VU", "AZ", "BN", "BI", "KH", "CM", "TD", "KM", "GQ", "SZ", "GA", "GN", "KG", "LA", "MO", "MR", "MN", "NP", "RW", "TG", "UZ", "ZW", "BJ", "MG", "MU", "MZ", "AO", "CI", "DJ", "ZM", "CD", "CG", "IQ", "LY", "TJ", "VE", "ET", "XK" ],
        "external_urls" : {
          "spotify" : "https://open.spotify.com/album/6zaisPwfcIAfdUGPj3mmGY"
        },
        "href" : "https://api.spotify.com/v1/albums/6zaisPwfcIAfdUGPj3mmGY",
        "id" : "6zaisPwfcIAfdUGPj3mmGY",
        "images" : [ {
          "height" : 640,
          "url" : "https://i.scdn.co/image/ab67616d0000b273ff8a4276b3be31c839557439",
          "width" : 640
        }, {
          "height" : 300,
          "url" : "https://i.scdn.co/image/ab67616d00001e02ff8a4276b3be31c839557439",
          "width" : 300
        }, {
          "height" : 64,
          "url" : "https://i.scdn.co/image/ab67616d00004851ff8a4276b3be31c839557439",
          "width" : 64
        } ],
        "name" : "HOPE",
        "release_date" : "2023-04-07",
        "release_date_precision" : "day",
        "total_tracks" : 13,
        "type" : "album",
        "uri" : "spotify:album:6zaisPwfcIAfdUGPj3mmGY"
      },
      "artists" : [ {
        "external_urls" : {
          "spotify" : "https://open.spotify.com/artist/6fOMl44jA4Sp5b9PpYCkzz"
        },
        "href" : "https://api.spotify.com/v1/artists/6fOMl44jA4Sp5b9PpYCkzz",
        "id" : "6fOMl44jA4Sp5b9PpYCkzz",
        "name" : "NF",
        "type" : "artist",
        "uri" : "spotify:artist:6fOMl44jA4Sp5b9PpYCkzz"
      } ],
      "available_markets" : [ "AR", "AU", "AT", "BE", "BO", "BR", "BG", "CA", "CL", "CO", "CR", "CY", "CZ", "DK", "DO", "DE", "EC", "EE", "SV", "FI", "FR", "GR", "GT", "HN", "HK", "HU", "IS", "IE", "IT", "LV", "LT", "LU", "MY", "MT", "MX", "NL", "NZ", "NI", "NO", "PA", "PY", "PE", "PH", "PL", "PT", "SG", "SK", "ES", "SE", "CH", "TW", "TR", "UY", "US", "GB", "AD", "LI", "MC", "ID", "JP", "TH", "VN", "RO", "IL", "ZA", "SA", "AE", "BH", "QA", "OM", "KW", "EG", "MA", "DZ", "TN", "LB", "JO", "PS", "IN", "KZ", "MD", "UA", "AL", "BA", "HR", "ME", "MK", "RS", "SI", "KR", "BD", "PK", "LK", "GH", "KE", "NG", "TZ", "UG", "AG", "AM", "BS", "BB", "BZ", "BT", "BW", "BF", "CV", "CW", "DM", "FJ", "GM", "GE", "GD", "GW", "GY", "HT", "JM", "KI", "LS", "LR", "MW", "MV", "ML", "MH", "FM", "NA", "NR", "NE", "PW", "PG", "WS", "SM", "ST", "SN", "SC", "SL", "SB", "KN", "LC", "VC", "SR", "TL", "TO", "TT", "TV", "VU", "AZ", "BN", "BI", "KH", "CM", "TD", "KM", "GQ", "SZ", "GA", "GN", "KG", "LA", "MO", "MR", "MN", "NP", "RW", "TG", "UZ", "ZW", "BJ", "MG", "MU", "MZ", "AO", "CI", "DJ", "ZM", "CD", "CG", "IQ", "LY", "TJ", "VE", "ET", "XK" ],
      "disc_number" : 1,
      "duration_ms" : 242691,
      "explicit" : false,
      "external_ids" : {
        "isrc" : "USUM72300449"
      },
      "external_urls" : {
        "spotify" : "https://open.spotify.com/track/3ZEno9fORwMA1HPecdLi0R"
      },
      "href" : "https://api.spotify.com/v1/tracks/3ZEno9fORwMA1HPecdLi0R",
      "id" : "3ZEno9fORwMA1HPecdLi0R",
      "is_local" : false,
      "name" : "HAPPY",
      "popularity" : 76,
      "preview_url" : null,
      "track_number" : 5,
      "type" : "track",
      "uri" : "spotify:track:3ZEno9fORwMA1HPecdLi0R"
    }, {
      "album" : {
        "album_type" : "album",
        "artists" : [ {
          "external_urls" : {
            "spotify" : "https://open.spotify.com/artist/2RdwBSPQiwcmiDo9kixcl8"
          },
          "href" : "https://api.spotify.com/v1/artists/2RdwBSPQiwcmiDo9kixcl8",
          "id" : "2RdwBSPQiwcmiDo9kixcl8",
          "name" : "Pharrell Williams",
          "type" : "artist",
          "uri" : "spotify:artist:2RdwBSPQiwcmiDo9kixcl8"
        } ],
        "available_markets" : [ "AR", "AU", "AT", "BE", "BO", "BR", "BG", "CA", "CL", "CO", "CR", "CY", "CZ", "DK", "DO", "DE", "EC", "EE", "SV", "FI", "FR", "GR", "GT", "HN", "HK", "HU", "IS", "IE", "IT", "LV", "LT", "LU", "MY", "MT", "MX", "NL", "NZ", "NI", "NO", "PA", "PY", "PE", "PH", "PL", "PT", "SG", "SK", "ES", "SE", "CH", "TW", "TR", "UY", "US", "GB", "AD", "LI", "MC", "ID", "JP", "TH", "VN", "RO", "IL", "ZA", "SA", "AE", "BH", "QA", "OM", "KW", "EG", "MA", "DZ", "TN", "LB", "JO", "PS", "IN", "BY", "KZ", "MD", "UA", "AL", "BA", "HR", "ME", "MK", "RS", "SI", "KR", "BD", "PK", "LK", "GH", "KE", "NG", "TZ", "UG", "AG", "AM", "BS", "BB", "BZ", "BT", "BW", "BF", "CV", "CW", "DM", "FJ", "GM", "GE", "GD", "GW", "GY", "HT", "JM", "KI", "LS", "LR", "MW", "MV", "ML", "MH", "FM", "NA", "NR", "NE", "PW", "PG", "WS", "SM", "ST", "SN", "SC", "SL", "SB", "KN", "LC", "VC", "SR", "TL", "TO", "TT", "TV", "VU", "AZ", "BN", "BI", "KH", "CM", "TD", "KM", "GQ", "SZ", "GA", "GN", "KG", "LA", "MO", "MR", "MN", "NP", "RW", "TG", "UZ", "ZW", "BJ", "MG", "MU", "MZ", "AO", "CI", "DJ", "ZM", "CD", "CG", "IQ", "LY", "TJ", "VE", "ET", "XK" ],
        "external_urls" : {
          "spotify" : "https://open.spotify.com/album/0lrmy4pJINsFzycJvttX2W"
        },
        "href" : "https://api.spotify.com/v1/albums/0lrmy4pJINsFzycJvttX2W",
        "id" : "0lrmy4pJINsFzycJvttX2W",
        "images" : [ {
          "height" : 640,
          "url" : "https://i.scdn.co/image/ab67616d0000b273e8107e6d9214baa81bb79bba",
          "width" : 640
        }, {
          "height" : 300,
          "url" : "https://i.scdn.co/image/ab67616d00001e02e8107e6d9214baa81bb79bba",
          "width" : 300
        }, {
          "height" : 64,
          "url" : "https://i.scdn.co/image/ab67616d00004851e8107e6d9214baa81bb79bba",
          "width" : 64
        } ],
        "name" : "G I R L",
        "release_date" : "2014-03-03",
        "release_date_precision" : "day",
        "total_tracks" : 11,
        "type" : "album",
        "uri" : "spotify:album:0lrmy4pJINsFzycJvttX2W"
      },
      "artists" : [ {
        "external_urls" : {
          "spotify" : "https://open.spotify.com/artist/2RdwBSPQiwcmiDo9kixcl8"
        },
        "href" : "https://api.spotify.com/v1/artists/2RdwBSPQiwcmiDo9kixcl8",
        "id" : "2RdwBSPQiwcmiDo9kixcl8",
        "name" : "Pharrell Williams",
        "type" : "artist",
        "uri" : "spotify:artist:2RdwBSPQiwcmiDo9kixcl8"
      } ],
      "available_markets" : [ "AR", "AU", "AT", "BE", "BO", "BR", "BG", "CA", "CL", "CO", "CR", "CY", "CZ", "DK", "DO", "DE", "EC", "EE", "SV", "FI", "FR", "GR", "GT", "HN", "HK", "HU", "IS", "IE", "IT", "LV", "LT", "LU", "MY", "MT", "MX", "NL", "NZ", "NI", "NO", "PA", "PY", "PE", "PH", "PL", "PT", "SG", "SK", "ES", "SE", "CH", "TW", "TR", "UY", "US", "GB", "AD", "LI", "MC", "ID", "JP", "TH", "VN", "RO", "IL", "ZA", "SA", "AE", "BH", "QA", "OM", "KW", "EG", "MA", "DZ", "TN", "LB", "JO", "PS", "IN", "BY", "KZ", "MD", "UA", "AL", "BA", "HR", "ME", "MK", "RS", "SI", "KR", "BD", "PK", "LK", "GH", "KE", "NG", "TZ", "UG", "AG", "AM", "BS", "BB", "BZ", "BT", "BW", "BF", "CV", "CW", "DM", "FJ", "GM", "GE", "GD", "GW", "GY", "HT", "JM", "KI", "LS", "LR", "MW", "MV", "ML", "MH", "FM", "NA", "NR", "NE", "PW", "PG", "WS", "SM", "ST", "SN", "SC", "SL", "SB", "KN", "LC", "VC", "SR", "TL", "TO", "TT", "TV", "VU", "AZ", "BN", "BI", "KH", "CM", "TD", "KM", "GQ", "SZ", "GA", "GN", "KG", "LA", "MO", "MR", "MN", "NP", "RW", "TG", "UZ", "ZW", "BJ", "MG", "MU", "MZ", "AO", "CI", "DJ", "ZM", "CD", "CG", "IQ", "LY", "TJ", "VE", "ET", "XK" ],
      "disc_number" : 1,
      "duration_ms" : 232720,
      "explicit" : false,
      "external_ids" : {
        "isrc" : "USQ4E1300686"
      },
      "external_urls" : {
        "spotify" : "https://open.spotify.com/track/60nZcImufyMA1MKQY3dcCH"
      },
      "href" : "https://api.spotify.com/v1/tracks/60nZcImufyMA1MKQY3dcCH",
      "id" : "60nZcImufyMA1MKQY3dcCH",
      "is_local" : false,
      "name" : "Happy - From \"Despicable Me 2\"",
      "popularity" : 82,
      "preview_url" : "https://p.scdn.co/mp3-preview/5e0c8e5d899dea532d697fb20a851450e9614cfc?cid=8f422087aab84a9eb15fb7e2547c4066",
      "track_number" : 5,
      "type" : "track",
      "uri" : "spotify:track:60nZcImufyMA1MKQY3dcCH"
    }, {
      "album" : {
        "album_type" : "single",
        "artists" : [ {
          "external_urls" : {
            "spotify" : "https://open.spotify.com/artist/4luZExkmgn39Kj5XsYWria"
          },
          "href" : "https://api.spotify.com/v1/artists/4luZExkmgn39Kj5XsYWria",
          "id" : "4luZExkmgn39Kj5XsYWria",
          "name" : "Jagwar Twin",
          "type" : "artist",
          "uri" : "spotify:artist:4luZExkmgn39Kj5XsYWria"
        } ],
        "available_markets" : [ "AR", "AU", "AT", "BE", "BO", "BR", "BG", "CA", "CL", "CO", "CR", "CY", "CZ", "DK", "DO", "DE", "EC", "EE", "SV", "FI", "FR", "GR", "GT", "HN", "HK", "HU", "IS", "IE", "IT", "LV", "LT", "LU", "MY", "MT", "MX", "NL", "NZ", "NI", "NO", "PA", "PY", "PE", "PH", "PL", "PT", "SG", "SK", "ES", "SE", "CH", "TW", "TR", "UY", "US", "GB", "AD", "LI", "MC", "ID", "JP", "TH", "VN", "RO", "IL", "ZA", "SA", "AE", "BH", "QA", "OM", "KW", "EG", "MA", "DZ", "TN", "LB", "JO", "PS", "IN", "BY", "KZ", "MD", "UA", "AL", "BA", "HR", "ME", "MK", "RS", "SI", "KR", "BD", "PK", "LK", "GH", "KE", "NG", "TZ", "UG", "AG", "AM", "BS", "BB", "BZ", "BT", "BW", "BF", "CV", "CW", "DM", "FJ", "GM", "GE", "GD", "GW", "GY", "HT", "JM", "KI", "LS", "LR", "MW", "MV", "ML", "MH", "FM", "NA", "NR", "NE", "PW", "PG", "WS", "SM", "ST", "SN", "SC", "SL", "SB", "KN", "LC", "VC", "SR", "TL", "TO", "TT", "TV", "VU", "AZ", "BN", "BI", "KH", "CM", "TD", "KM", "GQ", "SZ", "GA", "GN", "KG", "LA", "MO", "MR", "MN", "NP", "RW", "TG", "UZ", "ZW", "BJ", "MG", "MU", "MZ", "AO", "CI", "DJ", "ZM", "CD", "CG", "IQ", "LY", "TJ", "VE", "ET", "XK" ],
        "external_urls" : {
          "spotify" : "https://open.spotify.com/album/663C3TEQrU97Lm6gVKp5zi"
        },
        "href" : "https://api.spotify.com/v1/albums/663C3TEQrU97Lm6gVKp5zi",
        "id" : "663C3TEQrU97Lm6gVKp5zi",
        "images" : [ {
          "height" : 640,
          "url" : "https://i.scdn.co/image/ab67616d0000b2735277e1c890945db4f4ead0f0",
          "width" : 640
        }, {
          "height" : 300,
          "url" : "https://i.scdn.co/image/ab67616d00001e025277e1c890945db4f4ead0f0",
          "width" : 300
        }, {
          "height" : 64,
          "url" : "https://i.scdn.co/image/ab67616d000048515277e1c890945db4f4ead0f0",
          "width" : 64
        } ],
        "name" : "Happy Face",
        "release_date" : "2020-12-11",
        "release_date_precision" : "day",
        "total_tracks" : 1,
        "type" : "album",
        "uri" : "spotify:album:663C3TEQrU97Lm6gVKp5zi"
      },
      "artists" : [ {
        "external_urls" : {
          "spotify" : "https://open.spotify.com/artist/4luZExkmgn39Kj5XsYWria"
        },
        "href" : "https://api.spotify.com/v1/artists/4luZExkmgn39Kj5XsYWria",
        "id" : "4luZExkmgn39Kj5XsYWria",
        "name" : "Jagwar Twin",
        "type" : "artist",
        "uri" : "spotify:artist:4luZExkmgn39Kj5XsYWria"
      } ],
      "available_markets" : [ "AR", "AU", "AT", "BE", "BO", "BR", "BG", "CA", "CL", "CO", "CR", "CY", "CZ", "DK", "DO", "DE", "EC", "EE", "SV", "FI", "FR", "GR", "GT", "HN", "HK", "HU", "IS", "IE", "IT", "LV", "LT", "LU", "MY", "MT", "MX", "NL", "NZ", "NI", "NO", "PA", "PY", "PE", "PH", "PL", "PT", "SG", "SK", "ES", "SE", "CH", "TW", "TR", "UY", "US", "GB", "AD", "LI", "MC", "ID", "JP", "TH", "VN", "RO", "IL", "ZA", "SA", "AE", "BH", "QA", "OM", "KW", "EG", "MA", "DZ", "TN", "LB", "JO", "PS", "IN", "BY", "KZ", "MD", "UA", "AL", "BA", "HR", "ME", "MK", "RS", "SI", "KR", "BD", "PK", "LK", "GH", "KE", "NG", "TZ", "UG", "AG", "AM", "BS", "BB", "BZ", "BT", "BW", "BF", "CV", "CW", "DM", "FJ", "GM", "GE", "GD", "GW", "GY", "HT", "JM", "KI", "LS", "LR", "MW", "MV", "ML", "MH", "FM", "NA", "NR", "NE", "PW", "PG", "WS", "SM", "ST", "SN", "SC", "SL", "SB", "KN", "LC", "VC", "SR", "TL", "TO", "TT", "TV", "VU", "AZ", "BN", "BI", "KH", "CM", "TD", "KM", "GQ", "SZ", "GA", "GN", "KG", "LA", "MO", "MR", "MN", "NP", "RW", "TG", "UZ", "ZW", "BJ", "MG", "MU", "MZ", "AO", "CI", "DJ", "ZM", "CD", "CG", "IQ", "LY", "TJ", "VE", "ET", "XK" ],
      "disc_number" : 1,
      "duration_ms" : 169760,
      "explicit" : false,
      "external_ids" : {
        "isrc" : "QZNWS2055769"
      },
      "external_urls" : {
        "spotify" : "https://open.spotify.com/track/6QNCvcs758QuBEBISL6XIV"
      },
      "href" : "https://api.spotify.com/v1/tracks/6QNCvcs758QuBEBISL6XIV",
      "id" : "6QNCvcs758QuBEBISL6XIV",
      "is_local" : false,
      "name" : "Happy Face",
      "popularity" : 63,
      "preview_url" : "https://p.scdn.co/mp3-preview/7b4d09b9293f54ef662865fa5a8c186187644161?cid=8f422087aab84a9eb15fb7e2547c4066",
      "track_number" : 1,
      "type" : "track",
      "uri" : "spotify:track:6QNCvcs758QuBEBISL6XIV"
    }, {
      "album" : {
        "album_type" : "album",
        "artists" : [ {
          "external_urls" : {
            "spotify" : "https://open.spotify.com/artist/2Pfv2w8a20xzC7Dr7QXRqM"
          },
          "href" : "https://api.spotify.com/v1/artists/2Pfv2w8a20xzC7Dr7QXRqM",
          "id" : "2Pfv2w8a20xzC7Dr7QXRqM",
          "name" : "Mudvayne",
          "type" : "artist",
          "uri" : "spotify:artist:2Pfv2w8a20xzC7Dr7QXRqM"
        } ],
        "available_markets" : [ "AR", "AU", "AT", "BE", "BO", "BR", "BG", "CA", "CL", "CO", "CR", "CY", "CZ", "DK", "DO", "DE", "EC", "EE", "SV", "FI", "FR", "GR", "GT", "HN", "HK", "HU", "IS", "IE", "IT", "LV", "LT", "LU", "MY", "MT", "MX", "NL", "NZ", "NI", "NO", "PA", "PY", "PE", "PH", "PL", "PT", "SG", "SK", "ES", "SE", "CH", "TW", "TR", "UY", "US", "GB", "AD", "LI", "MC", "ID", "JP", "TH", "VN", "RO", "IL", "ZA", "SA", "AE", "BH", "QA", "OM", "KW", "EG", "MA", "DZ", "TN", "LB", "JO", "PS", "IN", "BY", "KZ", "MD", "UA", "AL", "BA", "HR", "ME", "MK", "RS", "SI", "KR", "BD", "PK", "LK", "GH", "KE", "NG", "TZ", "UG", "AG", "AM", "BS", "BB", "BZ", "BT", "BW", "BF", "CV", "CW", "DM", "FJ", "GM", "GE", "GD", "GW", "GY", "HT", "JM", "KI", "LS", "LR", "MW", "MV", "ML", "MH", "FM", "NA", "NR", "NE", "PW", "PG", "WS", "SM", "ST", "SN", "SC", "SL", "SB", "KN", "LC", "VC", "SR", "TL", "TO", "TT", "TV", "VU", "AZ", "BN", "BI", "KH", "CM", "TD", "KM", "GQ", "SZ", "GA", "GN", "KG", "LA", "MO", "MR", "MN", "NP", "RW", "TG", "UZ", "ZW", "BJ", "MG", "MU", "MZ", "AO", "CI", "DJ", "ZM", "CD", "CG", "IQ", "LY", "TJ", "VE", "ET", "XK" ],
        "external_urls" : {
          "spotify" : "https://open.spotify.com/album/0dCRu5tVhx9fvbVZSxfjfP"
        },
        "href" : "https://api.spotify.com/v1/albums/0dCRu5tVhx9fvbVZSxfjfP",
        "id" : "0dCRu5tVhx9fvbVZSxfjfP",
        "images" : [ {
          "height" : 640,
          "url" : "https://i.scdn.co/image/ab67616d0000b273d23c71c684a6e4d669e8deff",
          "width" : 640
        }, {
          "height" : 300,
          "url" : "https://i.scdn.co/image/ab67616d00001e02d23c71c684a6e4d669e8deff",
          "width" : 300
        }, {
          "height" : 64,
          "url" : "https://i.scdn.co/image/ab67616d00004851d23c71c684a6e4d669e8deff",
          "width" : 64
        } ],
        "name" : "Lost and Found",
        "release_date" : "2005",
        "release_date_precision" : "year",
        "total_tracks" : 12,
        "type" : "album",
        "uri" : "spotify:album:0dCRu5tVhx9fvbVZSxfjfP"
      },
      "artists" : [ {
        "external_urls" : {
          "spotify" : "https://open.spotify.com/artist/2Pfv2w8a20xzC7Dr7QXRqM"
        },
        "href" : "https://api.spotify.com/v1/artists/2Pfv2w8a20xzC7Dr7QXRqM",
        "id" : "2Pfv2w8a20xzC7Dr7QXRqM",
        "name" : "Mudvayne",
        "type" : "artist",
        "uri" : "spotify:artist:2Pfv2w8a20xzC7Dr7QXRqM"
      } ],
      "available_markets" : [ "AR", "AU", "AT", "BE", "BO", "BR", "BG", "CA", "CL", "CO", "CR", "CY", "CZ", "DK", "DO", "DE", "EC", "EE", "SV", "FI", "FR", "GR", "GT", "HN", "HK", "HU", "IS", "IE", "IT", "LV", "LT", "LU", "MY", "MT", "MX", "NL", "NZ", "NI", "NO", "PA", "PY", "PE", "PH", "PL", "PT", "SG", "SK", "ES", "SE", "CH", "TW", "TR", "UY", "US", "GB", "AD", "LI", "MC", "ID", "JP", "TH", "VN", "RO", "IL", "ZA", "SA", "AE", "BH", "QA", "OM", "KW", "EG", "MA", "DZ", "TN", "LB", "JO", "PS", "IN", "BY", "KZ", "MD", "UA", "AL", "BA", "HR", "ME", "MK", "RS", "SI", "KR", "BD", "PK", "LK", "GH", "KE", "NG", "TZ", "UG", "AG", "AM", "BS", "BB", "BZ", "BT", "BW", "BF", "CV", "CW", "DM", "FJ", "GM", "GE", "GD", "GW", "GY", "HT", "JM", "KI", "LS", "LR", "MW", "MV", "ML", "MH", "FM", "NA", "NR", "NE", "PW", "PG", "WS", "SM", "ST", "SN", "SC", "SL", "SB", "KN", "LC", "VC", "SR", "TL", "TO", "TT", "TV", "VU", "AZ", "BN", "BI", "KH", "CM", "TD", "KM", "GQ", "SZ", "GA", "GN", "KG", "LA", "MO", "MR", "MN", "NP", "RW", "TG", "UZ", "ZW", "BJ", "MG", "MU", "MZ", "AO", "CI", "DJ", "ZM", "CD", "CG", "IQ", "LY", "TJ", "VE", "ET", "XK" ],
      "disc_number" : 1,
      "duration_ms" : 216426,
      "explicit" : true,
      "external_ids" : {
        "isrc" : "USSM10500054"
      },
      "external_urls" : {
        "spotify" : "https://open.spotify.com/track/0INUE1K7cEiE8VH63Rv5RJ"
      },
      "href" : "https://api.spotify.com/v1/tracks/0INUE1K7cEiE8VH63Rv5RJ",
      "id" : "0INUE1K7cEiE8VH63Rv5RJ",
      "is_local" : false,
      "name" : "Happy?",
      "popularity" : 71,
      "preview_url" : "https://p.scdn.co/mp3-preview/902dacc92715211e588270b1f4e62fd3681e218e?cid=8f422087aab84a9eb15fb7e2547c4066",
      "track_number" : 3,
      "type" : "track",
      "uri" : "spotify:track:0INUE1K7cEiE8VH63Rv5RJ"
    } ],
    "limit" : 5,
    "next" : "https://api.spotify.com/v1/search?query=Happy&type=track&offset=5&limit=5",
    "offset" : 0,
    "previous" : null,
    "total" : 131
  }
}